<svg width="87" height="87" viewBox="0 0 87 87" xmlns="http://www.w3.org/2000/svg">
  <circle cx="43.5" cy="43.5" r="42.5" fill="url(#paint)" stroke="#DA9715" stroke-width="2"/>
  <path fill-rule="evenodd" clip-rule="evenodd" d="M32.2887 27.8041H39.4639C39.9593 27.8041 40.3608 28.2057 40.3608 28.701V59.1959C40.3608 59.6912 39.9593 60.0928 39.4639 60.0928H32.2887C31.7933 60.0928 31.3918 59.6912 31.3918 59.1959V28.701C31.3918 28.2057 31.7933 27.8041 32.2887 27.8041ZM48.433 27.8041H55.6083C56.1036 27.8041 56.5052 28.2057 56.5052 28.701V59.1959C56.5052 59.6912 56.1036 60.0928 55.6083 60.0928H48.433C47.9376 60.0928 47.5361 59.6912 47.5361 59.1959V28.701C47.5361 28.2057 47.9376 27.8041 48.433 27.8041Z" fill="white"/>
  <defs>
    <linearGradient id="paint" x1="86.7122" y1="-19.1343" x2="86.801" y2="43.5079" gradientUnits="userSpaceOnUse">
      <stop offset="0.188769" stop-color="#EDBD52"/>
      <stop offset="0.496073" stop-color="#F3D996"/>
      <stop offset="0.751292" stop-color="#FDC43B"/>
      <stop offset="1" stop-color="#CF9300"/>
    </linearGradient>
  </defs>
</svg>
